module ServerSide

go 1.21.3

require (
	github.com/coreos/go-oidc v2.2.1+incompatible
	github.com/golang-jwt/jwt v3.2.2+incompatible
	github.com/joho/godotenv v1.5.1
	github.com/labstack/echo/v4 v4.11.4
	golang.org/x/crypto v0.21.0
	golang.org/x/oauth2 v0.19.0
	gorm.io/driver/postgres v1.5.7
	gorm.io/gorm v1.25.9
)

require (
	cloud.google.com/go/compute v1.20.1 // indirect
	cloud.google.com/go/compute/metadata v0.2.3 // indirect
	github.com/jackc/pgpassfile v1.0.0 // indirect
	github.com/jackc/pgservicefile v0.0.0-20221227161230-091c0ba34f0a // indirect
	github.com/jackc/pgx/v5 v5.4.3 // indirect
	github.com/jinzhu/inflection v1.0.0 // indirect
	github.com/jinzhu/now v1.1.5 // indirect
	github.com/labstack/gommon v0.4.2 // indirect
	github.com/mattn/go-colorable v0.1.13 // indirect
	github.com/mattn/go-isatty v0.0.20 // indirect
	github.com/pquerna/cachecontrol v0.2.0 // indirect
	github.com/valyala/bytebufferpool v1.0.0 // indirect
	github.com/valyala/fasttemplate v1.2.2 // indirect
	golang.org/x/net v0.21.0 // indirect
	golang.org/x/sys v0.18.0 // indirect
	golang.org/x/text v0.14.0 // indirect
	gopkg.in/square/go-jose.v2 v2.6.0 // indirect
)
